Projet_partie_2/eclat/target/tb.vcd
$date
  Sat May 10 16:18:30 2025
$end
$version
  GHDL v0
$end
$timescale
  1 fs
$end
$scope module standard $end
$upscope $end
$scope module std_logic_1164 $end
$upscope $end
$scope module numeric_std $end
$upscope $end
$scope module runtime $end
$upscope $end
$scope module textio $end
$upscope $end
$scope module int $end
$upscope $end
$scope module util $end
$upscope $end
$scope module print $end
$upscope $end
$scope module bool $end
$upscope $end
$scope module tb_main $end
$var reg 1 ! tb_argument[0:0] $end
$var reg 1 " tb_result[0:0] $end
$var reg 1 # tb_next_result[0:0] $end
$var reg 1 $ tb_clk $end
$var reg 1 % rst $end
$scope module u1 $end
$var reg 1 & clk $end
$var reg 1 ' reset $end
$var reg 1 ( argument[0:0] $end
$var reg 1 ) result[0:0] $end
$comment \state%now\ is not handled $end
$comment \state%next\ is not handled $end
$comment \state_var80%now\ is not handled $end
$comment \state_var80%next\ is not handled $end
$comment \$315_code\ is not handled $end
$var reg 36 * \$$315_code_value\[0:35] $end
$var integer 32 + \$$315_code_ptr\ $end
$var integer 32 , \$$315_code_ptr_write\ $end
$var reg 36 - \$$315_code_write\[0:35] $end
$var reg 1 . \$$315_code_write_request\ $end
$comment \$317_code\ is not handled $end
$var reg 36 / \$$317_code_value\[0:35] $end
$var integer 32 0 \$$317_code_ptr\ $end
$var integer 32 1 \$$317_code_ptr_write\ $end
$var reg 36 2 \$$317_code_write\[0:35] $end
$var reg 1 3 \$$317_code_write_request\ $end
$comment \$318_stack\ is not handled $end
$var reg 32 4 \$$318_stack_value\[0:31] $end
$var integer 32 5 \$$318_stack_ptr\ $end
$var integer 32 6 \$$318_stack_ptr_write\ $end
$var reg 32 7 \$$318_stack_write\[0:31] $end
$var reg 1 8 \$$318_stack_write_request\ $end
$var reg 36 9 \$375%next\[0:35] $end
$var reg 36 : \$375%now\[0:35] $end
$var reg 33 ; \$367%next\[0:32] $end
$var reg 33 < \$367%now\[0:32] $end
$var reg 34 = \$372_arg%next\[0:33] $end
$var reg 34 > \$372_arg%now\[0:33] $end
$var reg 4 ? \$v67%next\[0:3] $end
$var reg 4 @ \$v67%now\[0:3] $end
$var reg 12 A \$372_id%next\[0:11] $end
$var reg 12 B \$372_id%now\[0:11] $end
$var reg 1 C \$$318_stack_lock%next\[0:0] $end
$var reg 1 D \$$318_stack_lock%now\[0:0] $end
$var reg 1 E \$$317_code_lock%next\[0:0] $end
$var reg 1 F \$$317_code_lock%now\[0:0] $end
$var reg 1 G \$$315_code_lock%next\[0:0] $end
$var reg 1 H \$$315_code_lock%now\[0:0] $end
$var reg 1 I \rdy63%next\[0:0] $end
$var reg 1 J \rdy63%now\[0:0] $end
$var reg 1 K \$v70%next\[0:0] $end
$var reg 1 L \$v70%now\[0:0] $end
$var reg 1 M \result59%next\[0:0] $end
$var reg 1 N \result59%now\[0:0] $end
$var reg 1 O \$369%next\[0:0] $end
$var reg 1 P \$369%now\[0:0] $end
$var reg 1 Q \$377%next\[0:0] $end
$var reg 1 R \$377%now\[0:0] $end
$var reg 1 S \rdy60%next\[0:0] $end
$var reg 1 T \rdy60%now\[0:0] $end
$var reg 1 U \$v56%next\[0:0] $end
$var reg 1 V \$v56%now\[0:0] $end
$var reg 1 W \$v74%next\[0:0] $end
$var reg 1 X \$v74%now\[0:0] $end
$var reg 1 Y \$v53%next\[0:0] $end
$var reg 1 Z \$v53%now\[0:0] $end
$var reg 1 [ \$v54%next\[0:0] $end
$var reg 1 \ \$v54%now\[0:0] $end
$var reg 1 ] \$v79%next\[0:0] $end
$var reg 1 ^ \$v79%now\[0:0] $end
$var reg 1 _ \$368%next\[0:0] $end
$var reg 1 ` \$368%now\[0:0] $end
$var reg 1 a \$361_w%next\[0:0] $end
$var reg 1 b \$361_w%now\[0:0] $end
$var reg 1 c \$v55%next\[0:0] $end
$var reg 1 d \$v55%now\[0:0] $end
$var reg 32 e \$364_r%next\[0:31] $end
$var reg 32 f \$364_r%now\[0:31] $end
$var reg 32 g \$379%next\[0:31] $end
$var reg 32 h \$379%now\[0:31] $end
$var reg 32 i \$363_pc%next\[0:31] $end
$var reg 32 j \$363_pc%now\[0:31] $end
$var reg 32 k \$362_sp%next\[0:31] $end
$var reg 32 l \$362_sp%now\[0:31] $end
$var reg 32 m \$376_v%next\[0:31] $end
$var reg 32 n \$376_v%now\[0:31] $end
$var reg 32 o \result62%next\[0:31] $end
$var reg 32 p \result62%now\[0:31] $end
$var reg 32 q \$v71%next\[0:31] $end
$var reg 32 r \$v71%now\[0:31] $end
$var reg 32 s \$381%next\[0:31] $end
$var reg 32 t \$381%now\[0:31] $end
$var reg 32 u \$380%next\[0:31] $end
$var reg 32 v \$380%now\[0:31] $end
$var reg 32 w \$366_cy%next\[0:31] $end
$var reg 32 x \$366_cy%now\[0:31] $end
$var reg 32 y \$378%next\[0:31] $end
$var reg 32 z \$378%now\[0:31] $end
$var reg 32 { \$v76%next\[0:31] $end
$var reg 32 | \$v76%now\[0:31] $end
$var reg 32 } \$v65%next\[0:31] $end
$var reg 32 !" \$v65%now\[0:31] $end
$upscope $end
$upscope $end
$enddefinitions $end
#0
b0 !
b0 "
bU #
1$
1%
1&
1'
b0 (
b0 )
b000000000000000000000000000000000000 *
b0 +
b0 ,
b000000000000000000000000000000000101 -
1.
b000000000000000000000000000000000000 /
b0 0
b0 1
b000000000000000000000000000000000000 2
03
b00000000000000000000000000000000 4
b0 5
b0 6
b00000000000000000000000000000000 7
08
b000000000000000000000000000000000000 9
b000000000000000000000000000000000000 :
b000000000000000000000000000000000 ;
b000000000000000000000000000000000 <
b0000000000000000000000000000000000 =
b0000000000000000000000000000000000 >
b0000 ?
b0000 @
b000000000000 A
b000000000000 B
b0 C
b0 D
b0 E
b0 F
b1 G
b0 H
b0 I
b0 J
b0 K
b0 L
b0 M
b0 N
b0 O
b0 P
b0 Q
b0 R
b0 S
b0 T
b0 U
b0 V
b0 W
b0 X
b0 Y
b0 Z
b0 [
b0 \
b0 ]
b0 ^
b0 _
b0 `
b0 a
b0 b
b0 c
b0 d
b00000000000000000000000000000000 e
b00000000000000000000000000000000 f
b00000000000000000000000000000000 g
b00000000000000000000000000000000 h
b00000000000000000000000000000000 i
b00000000000000000000000000000000 j
b00000000000000000000000000000000 k
b00000000000000000000000000000000 l
b00000000000000000000000000000000 m
b00000000000000000000000000000000 n
b00000000000000000000000000000000 o
b00000000000000000000000000000000 p
b00000000000000000000000000000000 q
b00000000000000000000000000000000 r
b00000000000000000000000000000000 s
b00000000000000000000000000000000 t
b00000000000000000000000000000000 u
b00000000000000000000000000000000 v
b00000000000000000000000000000000 w
b00000000000000000000000000000000 x
b00000000000000000000000000000000 y
b00000000000000000000000000000000 z
b00000000000000000000000000000101 {
b00000000000000000000000000000000 |
b00000000000000000000000000000000 }
b00000000000000000000000000000000 !"
#2000000
0%
0'
#5000000
b1 !
0$
0&
b1 (
#10000000
b1 "
1$
1&
b1 )
bUUUUUUUUUUUUUUUUUUUUUUUUUUUUUUUUUUUU *
0.
bUUUUUUUUUUUUUUUUUUUUUUUUUUUUUUUUUUUU /
b000000000000000000000000000000101010 2
13
bUUUUUUUUUUUUUUUUUUUUUUUUUUUUUUUU 4
b1 E
b0 G
b1 H
b1 M
b1 S
b1 U
b1 Y
b1 [
b1 a
b1 c
b00000000000000000000000000000001 e
b00000000000000000000000000000001 g
b00000000000000000000000000000001 i
b00000000000000000000000000000001 k
b00000000000000000000000000101010 q
b00000000000000000000000000000001 s
b00000000000000000000000000000001 u
b00000000000000000000000000000001 w
b00000000000000000000000000000001 y
b00000000000000000000000000000101 |
#15000000
0$
0&
#20000000
1$
1&
b000000000000000000000000000000000101 *
1.
b1 F
b1 G
b0 H
b1 N
b0 S
b1 T
b1 V
b1 Z
b1 \
b1 b
b1 d
b00000000000000000000000000000001 f
b00000000000000000000000000000001 h
b00000000000000000000000000000001 j
b00000000000000000000000000000001 l
b00000000000000000000000000101010 r
b00000000000000000000000000000001 t
b00000000000000000000000000000001 v
b00000000000000000000000000000001 x
b00000000000000000000000000000001 z
#25000000
0$
0&
#30000000
1$
1&
0.
b000000000000000000000000000000101010 /
03
b1100000000000000000000000000000010 =
b000000000001 A
b0 E
b0 G
b1 H
b1 S
b0 T
b1 _
b00000000000000000000000000000010 e
b00000000000000000000000000000010 g
b00000000000000000000000000000010 i
b00000000000000000000000000000010 k
b00000000000000000000000000000010 s
b00000000000000000000000000000010 u
b00000000000000000000000000000010 w
b00000000000000000000000000000010 y
#35000000
0$
0&
#40000000
1$
1&
1.
b1100000000000000000000000000000010 >
b000000000001 B
b0 F
b1 G
b0 H
b0 S
b1 T
b1 `
b00000000000000000000000000000010 f
b00000000000000000000000000000010 h
b00000000000000000000000000000010 j
b00000000000000000000000000000010 l
b00000000000000000000000000000010 t
b00000000000000000000000000000010 v
b00000000000000000000000000000010 x
b00000000000000000000000000000010 z
#45000000
0$
0&
#50000000
1$
1&
0.
b10 0
b1 E
b0 G
b1 H
b1 S
b0 T
b00000000000000000000000000000011 e
b00000000000000000000000000000011 g
b00000000000000000000000000000011 i
b00000000000000000000000000000011 k
b00000000000000000000000000000011 s
b00000000000000000000000000000011 u
b00000000000000000000000000000011 w
b00000000000000000000000000000011 y
#55000000
0$
0&
#60000000
1$
1&
1.
bUUUUUUUUUUUUUUUUUUUUUUUUUUUUUUUUUUUU /
b1 F
b1 G
b0 H
b0 S
b1 T
b00000000000000000000000000000011 f
b00000000000000000000000000000011 h
b00000000000000000000000000000011 j
b00000000000000000000000000000011 l
b00000000000000000000000000000011 t
b00000000000000000000000000000011 v
b00000000000000000000000000000011 x
b00000000000000000000000000000011 z
#65000000
0$
0&
#70000000
1$
1&
0.
bUUUUUUUUUUUUUUUUUUUUUUUUUUUUUUUUUUUU 9
bUUUU ?
b0 E
b0 G
b1 H
b1 S
b0 T
b00000000000000000000000000000100 e
b00000000000000000000000000000100 g
b00000000000000000000000000000100 i
b00000000000000000000000000000100 k
b00000000000000000000000000000100 s
b00000000000000000000000000000100 u
b00000000000000000000000000000100 w
b00000000000000000000000000000100 y
bUUUUUUUUUUUUUUUUUUUUUUUUUUUUUUUU }
#75000000
0$
0&
#80000000
1$
1&
1.
bUUUUUUUUUUUUUUUUUUUUUUUUUUUUUUUUUUUU :
bUUUU @
b0 F
b1 G
b0 H
b0 S
b1 T
b00000000000000000000000000000100 f
b00000000000000000000000000000100 h
b00000000000000000000000000000100 j
b00000000000000000000000000000100 l
b00000000000000000000000000000100 t
b00000000000000000000000000000100 v
b00000000000000000000000000000100 x
b00000000000000000000000000000100 z
bUUUUUUUUUUUUUUUUUUUUUUUUUUUUUUUU !"
#85000000
0$
0&
#90000000
1$
1&
0.
b1 E
b0 G
b1 H
b1 S
b0 T
b00000000000000000000000000000101 e
b00000000000000000000000000000101 g
b00000000000000000000000000000101 i
b00000000000000000000000000000101 k
b00000000000000000000000000000101 s
b00000000000000000000000000000101 u
b00000000000000000000000000000101 w
b00000000000000000000000000000101 y
#95000000
0$
0&
#100000000
1$
1&
1.
b1 F
b1 G
b0 H
b0 S
b1 T
b00000000000000000000000000000101 f
b00000000000000000000000000000101 h
b00000000000000000000000000000101 j
b00000000000000000000000000000101 l
b00000000000000000000000000000101 t
b00000000000000000000000000000101 v
b00000000000000000000000000000101 x
b00000000000000000000000000000101 z
#105000000
0$
0&
#110000000
1$
1&
0.
b0 E
b0 G
b1 H
b1 S
b0 T
b00000000000000000000000000000110 e
b00000000000000000000000000000110 g
b00000000000000000000000000000110 i
b00000000000000000000000000000110 k
b00000000000000000000000000000110 s
b00000000000000000000000000000110 u
b00000000000000000000000000000110 w
b00000000000000000000000000000110 y
#115000000
0$
0&
#120000000
1$
1&
1.
b0 F
b1 G
b0 H
b0 S
b1 T
b00000000000000000000000000000110 f
b00000000000000000000000000000110 h
b00000000000000000000000000000110 j
b00000000000000000000000000000110 l
b00000000000000000000000000000110 t
b00000000000000000000000000000110 v
b00000000000000000000000000000110 x
b00000000000000000000000000000110 z
#125000000
0$
0&
#130000000
1$
1&
0.
b1 E
b0 G
b1 H
b1 S
b0 T
b00000000000000000000000000000111 e
b00000000000000000000000000000111 g
b00000000000000000000000000000111 i
b00000000000000000000000000000111 k
b00000000000000000000000000000111 s
b00000000000000000000000000000111 u
b00000000000000000000000000000111 w
b00000000000000000000000000000111 y
#135000000
0$
0&
#140000000
1$
1&
1.
b1 F
b1 G
b0 H
b0 S
b1 T
b00000000000000000000000000000111 f
b00000000000000000000000000000111 h
b00000000000000000000000000000111 j
b00000000000000000000000000000111 l
b00000000000000000000000000000111 t
b00000000000000000000000000000111 v
b00000000000000000000000000000111 x
b00000000000000000000000000000111 z
#145000000
0$
0&
#150000000
1$
1&
0.
b0 E
b0 G
b1 H
b1 S
b0 T
b00000000000000000000000000001000 e
b00000000000000000000000000001000 g
b00000000000000000000000000001000 i
b00000000000000000000000000001000 k
b00000000000000000000000000001000 s
b00000000000000000000000000001000 u
b00000000000000000000000000001000 w
b00000000000000000000000000001000 y
#155000000
0$
0&
#160000000
1$
1&
1.
b0 F
b1 G
b0 H
b0 S
b1 T
b00000000000000000000000000001000 f
b00000000000000000000000000001000 h
b00000000000000000000000000001000 j
b00000000000000000000000000001000 l
b00000000000000000000000000001000 t
b00000000000000000000000000001000 v
b00000000000000000000000000001000 x
b00000000000000000000000000001000 z
#165000000
0$
0&
#170000000
1$
1&
0.
b1 E
b0 G
b1 H
b1 S
b0 T
b00000000000000000000000000001001 e
b00000000000000000000000000001001 g
b00000000000000000000000000001001 i
b00000000000000000000000000001001 k
b00000000000000000000000000001001 s
b00000000000000000000000000001001 u
b00000000000000000000000000001001 w
b00000000000000000000000000001001 y
#175000000
0$
0&
#180000000
1$
1&
1.
b1 F
b1 G
b0 H
b0 S
b1 T
b00000000000000000000000000001001 f
b00000000000000000000000000001001 h
b00000000000000000000000000001001 j
b00000000000000000000000000001001 l
b00000000000000000000000000001001 t
b00000000000000000000000000001001 v
b00000000000000000000000000001001 x
b00000000000000000000000000001001 z
#185000000
0$
0&
#190000000
1$
1&
0.
b0 E
b0 G
b1 H
b1 S
b0 T
b00000000000000000000000000001010 e
b00000000000000000000000000001010 g
b00000000000000000000000000001010 i
b00000000000000000000000000001010 k
b00000000000000000000000000001010 s
b00000000000000000000000000001010 u
b00000000000000000000000000001010 w
b00000000000000000000000000001010 y
#195000000
0$
0&
#200000000
1$
1&
1.
b0 F
b1 G
b0 H
b0 S
b1 T
b00000000000000000000000000001010 f
b00000000000000000000000000001010 h
b00000000000000000000000000001010 j
b00000000000000000000000000001010 l
b00000000000000000000000000001010 t
b00000000000000000000000000001010 v
b00000000000000000000000000001010 x
b00000000000000000000000000001010 z
#205000000
0$
0&
#210000000
1$
1&
0.
b1 E
b0 G
b1 H
b1 S
b0 T
b00000000000000000000000000001011 e
b00000000000000000000000000001011 g
b00000000000000000000000000001011 i
b00000000000000000000000000001011 k
b00000000000000000000000000001011 s
b00000000000000000000000000001011 u
b00000000000000000000000000001011 w
b00000000000000000000000000001011 y
#215000000
0$
0&
#220000000
1$
1&
1.
b1 F
b1 G
b0 H
b0 S
b1 T
b00000000000000000000000000001011 f
b00000000000000000000000000001011 h
b00000000000000000000000000001011 j
b00000000000000000000000000001011 l
b00000000000000000000000000001011 t
b00000000000000000000000000001011 v
b00000000000000000000000000001011 x
b00000000000000000000000000001011 z
#225000000
0$
0&
#230000000
1$
1&
0.
b0 E
b0 G
b1 H
b1 S
b0 T
b00000000000000000000000000001100 e
b00000000000000000000000000001100 g
b00000000000000000000000000001100 i
b00000000000000000000000000001100 k
b00000000000000000000000000001100 s
b00000000000000000000000000001100 u
b00000000000000000000000000001100 w
b00000000000000000000000000001100 y
#235000000
0$
0&
#240000000
1$
1&
1.
b0 F
b1 G
b0 H
b0 S
b1 T
b00000000000000000000000000001100 f
b00000000000000000000000000001100 h
b00000000000000000000000000001100 j
b00000000000000000000000000001100 l
b00000000000000000000000000001100 t
b00000000000000000000000000001100 v
b00000000000000000000000000001100 x
b00000000000000000000000000001100 z
#245000000
0$
0&
#250000000
1$
1&
0.
b1 E
b0 G
b1 H
b1 S
b0 T
b00000000000000000000000000001101 e
b00000000000000000000000000001101 g
b00000000000000000000000000001101 i
b00000000000000000000000000001101 k
b00000000000000000000000000001101 s
b00000000000000000000000000001101 u
b00000000000000000000000000001101 w
b00000000000000000000000000001101 y
#255000000
0$
0&
#260000000
1$
1&
1.
b1 F
b1 G
b0 H
b0 S
b1 T
b00000000000000000000000000001101 f
b00000000000000000000000000001101 h
b00000000000000000000000000001101 j
b00000000000000000000000000001101 l
b00000000000000000000000000001101 t
b00000000000000000000000000001101 v
b00000000000000000000000000001101 x
b00000000000000000000000000001101 z
#265000000
0$
0&
#270000000
1$
1&
0.
b0 E
b0 G
b1 H
b1 S
b0 T
b00000000000000000000000000001110 e
b00000000000000000000000000001110 g
b00000000000000000000000000001110 i
b00000000000000000000000000001110 k
b00000000000000000000000000001110 s
b00000000000000000000000000001110 u
b00000000000000000000000000001110 w
b00000000000000000000000000001110 y
#275000000
0$
0&
#280000000
1$
1&
1.
b0 F
b1 G
b0 H
b0 S
b1 T
b00000000000000000000000000001110 f
b00000000000000000000000000001110 h
b00000000000000000000000000001110 j
b00000000000000000000000000001110 l
b00000000000000000000000000001110 t
b00000000000000000000000000001110 v
b00000000000000000000000000001110 x
b00000000000000000000000000001110 z
#285000000
0$
0&
#290000000
1$
1&
0.
b1 E
b0 G
b1 H
b1 S
b0 T
b00000000000000000000000000001111 e
b00000000000000000000000000001111 g
b00000000000000000000000000001111 i
b00000000000000000000000000001111 k
b00000000000000000000000000001111 s
b00000000000000000000000000001111 u
b00000000000000000000000000001111 w
b00000000000000000000000000001111 y
#295000000
0$
0&
#300000000
1$
1&
1.
b1 F
b1 G
b0 H
b0 S
b1 T
b00000000000000000000000000001111 f
b00000000000000000000000000001111 h
b00000000000000000000000000001111 j
b00000000000000000000000000001111 l
b00000000000000000000000000001111 t
b00000000000000000000000000001111 v
b00000000000000000000000000001111 x
b00000000000000000000000000001111 z
#305000000
0$
0&
#310000000
1$
1&
0.
b0 E
b0 G
b1 H
b1 S
b0 T
b00000000000000000000000000010000 e
b00000000000000000000000000010000 g
b00000000000000000000000000010000 i
b00000000000000000000000000010000 k
b00000000000000000000000000010000 s
b00000000000000000000000000010000 u
b00000000000000000000000000010000 w
b00000000000000000000000000010000 y
#315000000
0$
0&
#320000000
1$
1&
1.
b0 F
b1 G
b0 H
b0 S
b1 T
b00000000000000000000000000010000 f
b00000000000000000000000000010000 h
b00000000000000000000000000010000 j
b00000000000000000000000000010000 l
b00000000000000000000000000010000 t
b00000000000000000000000000010000 v
b00000000000000000000000000010000 x
b00000000000000000000000000010000 z
#325000000
0$
0&
#330000000
1$
1&
0.
b1 E
b0 G
b1 H
b1 S
b0 T
b00000000000000000000000000010001 e
b00000000000000000000000000010001 g
b00000000000000000000000000010001 i
b00000000000000000000000000010001 k
b00000000000000000000000000010001 s
b00000000000000000000000000010001 u
b00000000000000000000000000010001 w
b00000000000000000000000000010001 y
#335000000
0$
0&
#340000000
1$
1&
1.
b1 F
b1 G
b0 H
b0 S
b1 T
b00000000000000000000000000010001 f
b00000000000000000000000000010001 h
b00000000000000000000000000010001 j
b00000000000000000000000000010001 l
b00000000000000000000000000010001 t
b00000000000000000000000000010001 v
b00000000000000000000000000010001 x
b00000000000000000000000000010001 z
#345000000
0$
0&
#350000000
1$
1&
0.
b0 E
b0 G
b1 H
b1 S
b0 T
b00000000000000000000000000010010 e
b00000000000000000000000000010010 g
b00000000000000000000000000010010 i
b00000000000000000000000000010010 k
b00000000000000000000000000010010 s
b00000000000000000000000000010010 u
b00000000000000000000000000010010 w
b00000000000000000000000000010010 y
#355000000
0$
0&
#360000000
1$
1&
1.
b0 F
b1 G
b0 H
b0 S
b1 T
b00000000000000000000000000010010 f
b00000000000000000000000000010010 h
b00000000000000000000000000010010 j
b00000000000000000000000000010010 l
b00000000000000000000000000010010 t
b00000000000000000000000000010010 v
b00000000000000000000000000010010 x
b00000000000000000000000000010010 z
#365000000
0$
0&
#370000000
1$
1&
0.
b1 E
b0 G
b1 H
b1 S
b0 T
b00000000000000000000000000010011 e
b00000000000000000000000000010011 g
b00000000000000000000000000010011 i
b00000000000000000000000000010011 k
b00000000000000000000000000010011 s
b00000000000000000000000000010011 u
b00000000000000000000000000010011 w
b00000000000000000000000000010011 y
#375000000
0$
0&
#380000000
1$
1&
1.
b1 F
b1 G
b0 H
b0 S
b1 T
b00000000000000000000000000010011 f
b00000000000000000000000000010011 h
b00000000000000000000000000010011 j
b00000000000000000000000000010011 l
b00000000000000000000000000010011 t
b00000000000000000000000000010011 v
b00000000000000000000000000010011 x
b00000000000000000000000000010011 z
#385000000
0$
0&
#390000000
1$
1&
0.
b0 E
b0 G
b1 H
b1 S
b0 T
b00000000000000000000000000010100 e
b00000000000000000000000000010100 g
b00000000000000000000000000010100 i
b00000000000000000000000000010100 k
b00000000000000000000000000010100 s
b00000000000000000000000000010100 u
b00000000000000000000000000010100 w
b00000000000000000000000000010100 y
#395000000
0$
0&
#400000000
1$
1&
1.
b0 F
b1 G
b0 H
b0 S
b1 T
b00000000000000000000000000010100 f
b00000000000000000000000000010100 h
b00000000000000000000000000010100 j
b00000000000000000000000000010100 l
b00000000000000000000000000010100 t
b00000000000000000000000000010100 v
b00000000000000000000000000010100 x
b00000000000000000000000000010100 z
#405000000
0$
0&
#410000000
1$
1&
0.
b1 E
b0 G
b1 H
b1 S
b0 T
b00000000000000000000000000010101 e
b00000000000000000000000000010101 g
b00000000000000000000000000010101 i
b00000000000000000000000000010101 k
b00000000000000000000000000010101 s
b00000000000000000000000000010101 u
b00000000000000000000000000010101 w
b00000000000000000000000000010101 y
#415000000
0$
0&
#420000000
1$
1&
1.
b1 F
b1 G
b0 H
b0 S
b1 T
b00000000000000000000000000010101 f
b00000000000000000000000000010101 h
b00000000000000000000000000010101 j
b00000000000000000000000000010101 l
b00000000000000000000000000010101 t
b00000000000000000000000000010101 v
b00000000000000000000000000010101 x
b00000000000000000000000000010101 z
#425000000
0$
0&
#430000000
1$
1&
0.
b0 E
b0 G
b1 H
b1 S
b0 T
b00000000000000000000000000010110 e
b00000000000000000000000000010110 g
b00000000000000000000000000010110 i
b00000000000000000000000000010110 k
b00000000000000000000000000010110 s
b00000000000000000000000000010110 u
b00000000000000000000000000010110 w
b00000000000000000000000000010110 y
#435000000
0$
0&
#440000000
1$
1&
1.
b0 F
b1 G
b0 H
b0 S
b1 T
b00000000000000000000000000010110 f
b00000000000000000000000000010110 h
b00000000000000000000000000010110 j
b00000000000000000000000000010110 l
b00000000000000000000000000010110 t
b00000000000000000000000000010110 v
b00000000000000000000000000010110 x
b00000000000000000000000000010110 z
#445000000
0$
0&
#450000000
1$
1&
0.
b1 E
b0 G
b1 H
b1 S
b0 T
b00000000000000000000000000010111 e
b00000000000000000000000000010111 g
b00000000000000000000000000010111 i
b00000000000000000000000000010111 k
b00000000000000000000000000010111 s
b00000000000000000000000000010111 u
b00000000000000000000000000010111 w
b00000000000000000000000000010111 y
#455000000
0$
0&
#460000000
1$
1&
1.
b1 F
b1 G
b0 H
b0 S
b1 T
b00000000000000000000000000010111 f
b00000000000000000000000000010111 h
b00000000000000000000000000010111 j
b00000000000000000000000000010111 l
b00000000000000000000000000010111 t
b00000000000000000000000000010111 v
b00000000000000000000000000010111 x
b00000000000000000000000000010111 z
#465000000
0$
0&
#470000000
1$
1&
0.
b0 E
b0 G
b1 H
b1 S
b0 T
b00000000000000000000000000011000 e
b00000000000000000000000000011000 g
b00000000000000000000000000011000 i
b00000000000000000000000000011000 k
b00000000000000000000000000011000 s
b00000000000000000000000000011000 u
b00000000000000000000000000011000 w
b00000000000000000000000000011000 y
#475000000
0$
0&
#480000000
1$
1&
1.
b0 F
b1 G
b0 H
b0 S
b1 T
b00000000000000000000000000011000 f
b00000000000000000000000000011000 h
b00000000000000000000000000011000 j
b00000000000000000000000000011000 l
b00000000000000000000000000011000 t
b00000000000000000000000000011000 v
b00000000000000000000000000011000 x
b00000000000000000000000000011000 z
#485000000
0$
0&
#490000000
1$
1&
0.
b1 E
b0 G
b1 H
b1 S
b0 T
b00000000000000000000000000011001 e
b00000000000000000000000000011001 g
b00000000000000000000000000011001 i
b00000000000000000000000000011001 k
b00000000000000000000000000011001 s
b00000000000000000000000000011001 u
b00000000000000000000000000011001 w
b00000000000000000000000000011001 y
#495000000
0$
0&
#500000000
1$
1&
1.
b1 F
b1 G
b0 H
b0 S
b1 T
b00000000000000000000000000011001 f
b00000000000000000000000000011001 h
b00000000000000000000000000011001 j
b00000000000000000000000000011001 l
b00000000000000000000000000011001 t
b00000000000000000000000000011001 v
b00000000000000000000000000011001 x
b00000000000000000000000000011001 z
#505000000
0$
0&
#510000000
1$
1&
0.
b0 E
b0 G
b1 H
b1 S
b0 T
b00000000000000000000000000011010 e
b00000000000000000000000000011010 g
b00000000000000000000000000011010 i
b00000000000000000000000000011010 k
b00000000000000000000000000011010 s
b00000000000000000000000000011010 u
b00000000000000000000000000011010 w
b00000000000000000000000000011010 y
#515000000
0$
0&
#520000000
1$
1&
1.
b0 F
b1 G
b0 H
b0 S
b1 T
b00000000000000000000000000011010 f
b00000000000000000000000000011010 h
b00000000000000000000000000011010 j
b00000000000000000000000000011010 l
b00000000000000000000000000011010 t
b00000000000000000000000000011010 v
b00000000000000000000000000011010 x
b00000000000000000000000000011010 z
#525000000
0$
0&
#530000000
1$
1&
0.
b1 E
b0 G
b1 H
b1 S
b0 T
b00000000000000000000000000011011 e
b00000000000000000000000000011011 g
b00000000000000000000000000011011 i
b00000000000000000000000000011011 k
b00000000000000000000000000011011 s
b00000000000000000000000000011011 u
b00000000000000000000000000011011 w
b00000000000000000000000000011011 y
#535000000
0$
0&
#540000000
1$
1&
1.
b1 F
b1 G
b0 H
b0 S
b1 T
b00000000000000000000000000011011 f
b00000000000000000000000000011011 h
b00000000000000000000000000011011 j
b00000000000000000000000000011011 l
b00000000000000000000000000011011 t
b00000000000000000000000000011011 v
b00000000000000000000000000011011 x
b00000000000000000000000000011011 z
#545000000
0$
0&
#550000000
1$
1&
0.
b0 E
b0 G
b1 H
b1 S
b0 T
b00000000000000000000000000011100 e
b00000000000000000000000000011100 g
b00000000000000000000000000011100 i
b00000000000000000000000000011100 k
b00000000000000000000000000011100 s
b00000000000000000000000000011100 u
b00000000000000000000000000011100 w
b00000000000000000000000000011100 y
#555000000
0$
0&
#560000000
1$
1&
1.
b0 F
b1 G
b0 H
b0 S
b1 T
b00000000000000000000000000011100 f
b00000000000000000000000000011100 h
b00000000000000000000000000011100 j
b00000000000000000000000000011100 l
b00000000000000000000000000011100 t
b00000000000000000000000000011100 v
b00000000000000000000000000011100 x
b00000000000000000000000000011100 z
#565000000
0$
0&
#570000000
1$
1&
0.
b1 E
b0 G
b1 H
b1 S
b0 T
b00000000000000000000000000011101 e
b00000000000000000000000000011101 g
b00000000000000000000000000011101 i
b00000000000000000000000000011101 k
b00000000000000000000000000011101 s
b00000000000000000000000000011101 u
b00000000000000000000000000011101 w
b00000000000000000000000000011101 y
#575000000
0$
0&
#580000000
1$
1&
1.
b1 F
b1 G
b0 H
b0 S
b1 T
b00000000000000000000000000011101 f
b00000000000000000000000000011101 h
b00000000000000000000000000011101 j
b00000000000000000000000000011101 l
b00000000000000000000000000011101 t
b00000000000000000000000000011101 v
b00000000000000000000000000011101 x
b00000000000000000000000000011101 z
#585000000
0$
0&
#590000000
1$
1&
0.
b0 E
b0 G
b1 H
b1 S
b0 T
b00000000000000000000000000011110 e
b00000000000000000000000000011110 g
b00000000000000000000000000011110 i
b00000000000000000000000000011110 k
b00000000000000000000000000011110 s
b00000000000000000000000000011110 u
b00000000000000000000000000011110 w
b00000000000000000000000000011110 y
#595000000
0$
0&
#600000000
1$
1&
1.
b0 F
b1 G
b0 H
b0 S
b1 T
b00000000000000000000000000011110 f
b00000000000000000000000000011110 h
b00000000000000000000000000011110 j
b00000000000000000000000000011110 l
b00000000000000000000000000011110 t
b00000000000000000000000000011110 v
b00000000000000000000000000011110 x
b00000000000000000000000000011110 z
#605000000
0$
0&
#610000000
1$
1&
0.
b1 E
b0 G
b1 H
b1 S
b0 T
b00000000000000000000000000011111 e
b00000000000000000000000000011111 g
b00000000000000000000000000011111 i
b00000000000000000000000000011111 k
b00000000000000000000000000011111 s
b00000000000000000000000000011111 u
b00000000000000000000000000011111 w
b00000000000000000000000000011111 y
#615000000
0$
0&
#620000000
1$
1&
1.
b1 F
b1 G
b0 H
b0 S
b1 T
b00000000000000000000000000011111 f
b00000000000000000000000000011111 h
b00000000000000000000000000011111 j
b00000000000000000000000000011111 l
b00000000000000000000000000011111 t
b00000000000000000000000000011111 v
b00000000000000000000000000011111 x
b00000000000000000000000000011111 z
#625000000
0$
0&
#630000000
1$
1&
0.
b0 E
b0 G
b1 H
b1 S
b0 T
b00000000000000000000000000100000 e
b00000000000000000000000000100000 g
b00000000000000000000000000100000 i
b00000000000000000000000000100000 k
b00000000000000000000000000100000 s
b00000000000000000000000000100000 u
b00000000000000000000000000100000 w
b00000000000000000000000000100000 y
#635000000
0$
0&
#640000000
1$
1&
1.
b0 F
b1 G
b0 H
b0 S
b1 T
b00000000000000000000000000100000 f
b00000000000000000000000000100000 h
b00000000000000000000000000100000 j
b00000000000000000000000000100000 l
b00000000000000000000000000100000 t
b00000000000000000000000000100000 v
b00000000000000000000000000100000 x
b00000000000000000000000000100000 z
#645000000
0$
0&
